{
  "inqueritos": [
    {
      "id": 1,
      "tempoMinimo": 1,
      "reuPrimario": true,
      "semGraveAmeaca": true,
      "numero": "212/2019",
      "tipificacao": {
        "art": "155",
        "texto": "Art. 155 - Subtrair, para si ou para outrem, coisa alheia móvel",
        "pena": "reclusão, de um a quatro anos, e multa."
      },
      "dataInstaucarao": "2019-03-01 08:13:34",
      "autor": {
        "cpf": "01970226340",
        "nome": "nome",
        "mae": "mae",
        "dataNascimento": "1987-01-01",
        "profissao": "marceneiro",
        "rendaAnual": 5300,
        "antecedentes": false,
        "endereco": {
          "cep": "23456-790",
          "logradouro": "Rua folano de tal"
        },
        "telefone": ""
      },
      "vitima": "Primavezildo Schumarcher",
      "localDoFato": "Rua 05, casa 10, bairro José Walter",
      "objeto": "trata-se de ip instaurado por motivo de furto simples cometido pelo indiciado. ",
      "elegivelParaAcordo": "NAO",
      "acordoRealizado": false,
      "textoAcordo": "",
      "acordoAceitoPeloAutor": false,
      "acordoHomologado": false,
      "pedidoDeHomologacaoEnviado": false,
      "indicacaoDeAcordoAceitaPeloMP": false,
      "dataAudiencia": {
        "year": 2020,
        "month": 3,
        "day": 21
      },
      "horaAudiencia": {
        "hour": 14,
        "minute": 14,
        "second": 0
      },
      "textoCalibracaoIa": "slkfsl fsfkdfjsdlkfjslfkjflkfjsfjsdlfsjldjklslkfsl fsfkdfjsdlkfjslfkjflkfjsfjsdlfsjldjklslkfsl fsfkdfjsdlkfjslfkjflkfjsfjsdlfsjldjklslkfsl fsfkdfjsdlkfjslfkjflkfjsfjsdlfsjldjklslkfsl fsfkdfjsdlkfjslfkjflkfjsfjsdlfsjldjklslkfsl fsfkdfjsdlkfjslfkjflkfjsfjsdlfsjldjklslkfsl fsfkdfjsdlkfjslfkjflkfjsfjsdlfsjldjklslkfsl fsfkdfjsdlkfjslfkjflkfjsfjsdlfsjldjklslkfsl fsfkdfjsdlkfjslfkjflkfjsfjsdlfsjldjklslkfsl fsfkdfjsdlkfjslfkjflkfjsfjsdlfsjldjklslkfsl fsfkdfjsdlkfjslfkjflkfjsfjsdlfsjldjklslkfsl fsfkdfjsdlkfjslfkjflkfjsfjsdlfsjldjklslkfsl fsfkdfjsdlkfjslfkjflkfjsfjsdlfsjldjklslkfsl fsfkdfjsdlkfjslfkjflkfjsfjsdlfsjldjklslkfsl fsfkdfjsdlkfjslfkjflkfjsfjsdlfsjldjklslkfsl fsfkdfjsdlkfjslfkjflkfjsfjsdlfsjldjklslkfsl fsfkdfjsdlkfjslfkjflkfjsfjsdlfsjldjklslkfsl fsfkdfjsdlkfjslfkjflkfjsfjsdlfsjldjklslkfsl fsfkdfjsdlkfjslfkjflkfjsfjsdlfsjldjklslkfsl fsfkdfjsdlkfjslfkjflkfjsfjsdlfsjldjklslkfsl fsfkdfjsdlkfjslfkjflkfjsfjsdlfsjldjklslkfsl fsfkdfjsdlkfjslfkjflkfjsfjsdlfsjldjklslkfsl fsfkdfjsdlkfjslfkjflkfjsfjsdlfsjldjklslkfsl fsfkdfjsdlkfjslfkjflkfjsfjsdlfsjldjklslkfsl fsfkdfjsdlkfjslfkjflkfjsfjsdlfsjldjklslkfsl fsfkdfjsdlkfjslfkjflkfjsfjsdlfsjldjklslkfsl fsfkdfjsdlkfjslfkjflkfjsfjsdlfsjldjklslkfsl fsfkdfjsdlkfjslfkjflkfjsfjsdlfsjldjklslkfsl fsfkdfjsdlkfjslfkjflkfjsfjsdlfsjldjklslkfsl fsfkdfjsdlkfjslfkjflkfjsfjsdlfsjldjklslkfsl fsfkdfjsdlkfjslfkjflkfjsfjsdlfsjldjkl"
    },
    {
      "id": 2,
      "tempoMinimo": 4,
      "reuPrimario": true,
      "semGraveAmeaca": true,
      "numero": "212/2019",
      "tipificacao": {
        "art": "155",
        "texto": "Art. 155 - Subtrair, para si ou para outrem, coisa alheia móvel",
        "pena": "reclusão, de um a quatro anos, e multa."
      },
      "dataInstaucarao": "2019-03-01 08:13:34",
      "autor": {
        "cpf": "01970226340",
        "nome": "nome",
        "mae": "mae",
        "dataNascimento": "1987-01-01",
        "profissao": "marceneiro",
        "rendaAnual": 5300,
        "antecedentes": false,
        "endereco": {
          "cep": "23456-790",
          "logradouro": "Rua folano de tal"
        },
        "telefone": ""
      },
      "vitima": "Primavezildo Schumarcher",
      "localDoFato": "Rua 05, casa 10, bairro José Walter",
      "objeto": "trata-se de ip instaurado por motivo de furto simples cometido pelo indiciado. ",
      "elegivelParaAcordo": "SIM",
      "acordoRealizado": false,
      "textoAcordo": "",
      "acordoAceitoPeloAutor": false,
      "acordoHomologado": false,
      "pedidoDeHomologacaoEnviado": false,
      "indicacaoDeAcordoAceitaPeloMP": false,
      "dataAudiencia": null,
      "horaAudiencia": null,
      "textoCalibracaoIa": ""
    },
    {
      "id": 3,
      "tempoMinimo": 4,
      "reuPrimario": false,
      "semGraveAmeaca": true,
      "numero": "212/2019",
      "tipificacao": {
        "art": "155",
        "texto": "Art. 155 - Subtrair, para si ou para outrem, coisa alheia móvel",
        "pena": "reclusão, de um a quatro anos, e multa."
      },
      "dataInstaucarao": "2019-03-01 08:13:34",
      "autor": {
        "cpf": "01970226340",
        "nome": "nome",
        "mae": "mae",
        "dataNascimento": "1987-01-01",
        "profissao": "marceneiro",
        "rendaAnual": 5300,
        "antecedentes": false,
        "endereco": {
          "cep": "23456-790",
          "logradouro": "Rua folano de tal"
        },
        "telefone": ""
      },
      "vitima": "Primavezildo Schumarcher",
      "localDoFato": "Rua 05, casa 10, bairro José Walter",
      "objeto": "trata-se de ip instaurado por motivo de furto simples cometido pelo indiciado. ",
      "elegivelParaAcordo": "NAO",
      "acordoRealizado": false,
      "textoAcordo": "",
      "acordoAceitoPeloAutor": false,
      "acordoHomologado": false,
      "pedidoDeHomologacaoEnviado": false,
      "indicacaoDeAcordoAceitaPeloMP": false,
      "dataAudiencia": null,
      "horaAudiencia": null,
      "textoCalibracaoIa": ""
    },
    {
      "id": 4,
      "tempoMinimo": 6,
      "reuPrimario": true,
      "semGraveAmeaca": true,
      "numero": "212/2019",
      "tipificacao": {
        "art": "155",
        "texto": "Art. 155 - Subtrair, para si ou para outrem, coisa alheia móvel",
        "pena": "reclusão, de um a quatro anos, e multa."
      },
      "dataInstaucarao": "2019-03-01 08:13:34",
      "autor": {
        "cpf": "01970226340",
        "nome": "nome",
        "mae": "mae",
        "dataNascimento": "1987-01-01",
        "profissao": "marceneiro",
        "rendaAnual": 5300,
        "antecedentes": false,
        "endereco": {
          "cep": "23456-790",
          "logradouro": "Rua folano de tal"
        },
        "telefone": ""
      },
      "vitima": "Primavezildo Schumarcher",
      "localDoFato": "Rua 05, casa 10, bairro José Walter",
      "objeto": "trata-se de ip instaurado por motivo de furto simples cometido pelo indiciado. ",
      "elegivelParaAcordo": "NAO",
      "acordoRealizado": false,
      "textoAcordo": "",
      "acordoAceitoPeloAutor": false,
      "acordoHomologado": false,
      "pedidoDeHomologacaoEnviado": false,
      "indicacaoDeAcordoAceitaPeloMP": false,
      "dataAudiencia": null,
      "horaAudiencia": null,
      "textoCalibracaoIa": ""
    },
    {
      "id": 5,
      "tempoMinimo": 6,
      "reuPrimario": false,
      "semGraveAmeaca": false,
      "numero": "212/2019",
      "tipificacao": {
        "art": "155",
        "texto": "Art. 155 - Subtrair, para si ou para outrem, coisa alheia móvel",
        "pena": "reclusão, de um a quatro anos, e multa."
      },
      "dataInstaucarao": "2019-03-01 08:13:34",
      "autor": {
        "cpf": "01970226340",
        "nome": "nome",
        "mae": "mae",
        "dataNascimento": "1987-01-01",
        "profissao": "marceneiro",
        "rendaAnual": 5300,
        "antecedentes": false,
        "endereco": {
          "cep": "23456-790",
          "logradouro": "Rua folano de tal"
        },
        "telefone": ""
      },
      "vitima": "Primavezildo Schumarcher",
      "localDoFato": "Rua 05, casa 10, bairro José Walter",
      "objeto": "trata-se de ip instaurado por motivo de furto simples cometido pelo indiciado. ",
      "elegivelParaAcordo": "NAO",
      "acordoRealizado": false,
      "textoAcordo": "fsf sf sdfsf sfsdfsdf sdfs dsf sdfsdfsdfsdf ssdfds",
      "acordoAceitoPeloAutor": false,
      "acordoHomologado": false,
      "pedidoDeHomologacaoEnviado": false,
      "indicacaoDeAcordoAceitaPeloMP": false,
      "dataAudiencia": null,
      "horaAudiencia": null,
      "textoCalibracaoIa": "dsfsdfsdf dsfsd f"
    }
  ],
  "entidade": [
    {
      "id": "1",
      "nome": "dirigir embriagado"
    },
    {
      "id": "2",
      "nome": "desacato a autoridade"
    },
    {
      "id": "3",
      "nome": "porte ilegal de arma de fogo"
    },
    {
      "id": "4",
      "nome": "reu primario"
    }
  ],
  "frases": [
    {
      "id": "1",
      "id_entidade": "1",
      "nome": "conduzindo veiculo apos ingerir bebida alcoolica"
    },
    {
      "id": "2",
      "id_entidade": "1",
      "nome": "ingerido bebida alcoolica"
    },
    {
      "id": "3",
      "id_entidade": "1",
      "nome": "odor etilico"
    },
    {
      "id": "4",
      "id_entidade": "1",
      "nome": "garrafas de bebida alcoolica"
    },
    {
      "id": "5",
      "id_entidade": "1",
      "nome": "teste do etilometro"
    },
    {
      "id": "6",
      "id_entidade": "1",
      "nome": "exame de embriagues"
    },
    {
      "id": "7",
      "id_entidade": "1",
      "nome": "injestao de bebida"
    },
    {
      "id": "8",
      "id_entidade": "2",
      "nome": "art.331"
    },
    {
      "id": "9",
      "id_entidade": "2",
      "nome": "desacato"
    },
    {
      "id": "10",
      "id_entidade": "3",
      "nome": "arma de fogo"
    },
    {
      "id": "11",
      "id_entidade": "3",
      "nome": "revolver"
    },
    {
      "id": "12",
      "id_entidade": "3",
      "nome": "municiada"
    },
    {
      "id": "13",
      "id_entidade": "3",
      "nome": "estatudo do desarmamento"
    },
    {
      "id": "14",
      "id_entidade": "4",
      "nome": "nada consta no sistema de informacoes policiais SIP"
    },
    {
      "id": "15",
      "id_entidade": "4",
      "nome": "nada consta em nome da parte supracitada"
    },
    {
      "id": "16",
      "id_entidade": "4",
      "nome": "a pesquisa realizada nao abrangeu processos de execucao penal"
    }
  ]
}